{
  "array":[
    {
      "messageId":"1",
      "userId":"140000198202211138",
      "userName":"Luff",
      "userImgUrl":"./assets/user.jpg",
      "toUserId":"210000198410281948",
      "toUserName":"Agência Estado",
      "toUserImgUrl":"./assets/to-user.jpg",
      "time":1488349800000,
      "message":"Lorem ipsum dolor sit amet, consectetur adipiscing elit.",
      "status":"success"

    },
    {
      "messageId":"2",
      "userId":"210000198410281948",
      "userName":"Agência Estado",
      "userImgUrl":"./assets/to-user.jpg",
      "toUserId":"140000198202211138",
      "toUserName":"Luff",
      "toUserImgUrl":"./assets/user.jpg",
      "time":1491034800000,
      "message":"In vehicula sapien tempus volutpat suscipit. Pellentesque ullamcorper tincidunt turpis a congue.",
      "status":"success"
    },
    {
      "messageId":"3",
      "userId":"140000198202211138",
      "userName":"Luff",
      "userImgUrl":"./assets/user.jpg",
      "toUserId":"210000198410281948",
      "toUserName":"Agência Estado",
      "toUserImgUrl":"./assets/to-user.jpg",
      "time":1491034920000,
      "message":"Phasellus ultrices dolor ut convallis feugiat",
      "status":"success"
    },
    {
      "messageId":"4",
      "userId":"210000198410281948",
      "userName":"Agência Estado",
      "userImgUrl":"./assets/to-user.jpg",
      "toUserId":"140000198202211138",
      "toUserName":"Luff",
      "toUserImgUrl":"./assets/user.jpg",
      "time":1491036720000,
      "message":"Morbi viverra erat non magna tempor egestas.",
      "status":"success"
    },
    {
      "messageId":"5",
      "userId":"210000198410281948",
      "userName":"Agência Estado",
      "userImgUrl":"./assets/to-user.jpg",
      "toUserId":"140000198202211138",
      "toUserName":"Luff",
      "toUserImgUrl":"./assets/user.jpg",
      "time":1491108720000,
      "message":"Orci varius natoque penatibus et magnis dis parturient montes, nascetur ridiculus mus.",
      "status":"success"
    },
    {
      "messageId":"6",
      "userId":"140000198202211138",
      "userName":"Luff",
      "userImgUrl":"./assets/user.jpg",
      "toUserId":"210000198410281948",
      "toUserName":"Agência Estado",
      "toUserImgUrl":"./assets/to-user.jpg",
      "time":1491231120000,
      "message":"Nulla consectetur nibh tortor, a pellentesque tellus rutrum convallis.",
      "status":"success"
    },
    {
      "messageId":"7",
      "userId":"140000198202211138",
      "userName":"Luff",
      "userImgUrl":"./assets/user.jpg",
      "toUserId":"210000198410281948",
      "toUserName":"Agência Estado",
      "toUserImgUrl":"./assets/to-user.jpg",
      "time":1491231150000,
      "message":"Aliquam eget mi eget lacus tincidunt aliquam ut nec massa",
      "status":"success"
    }
  ]
}